To: debian-newmaint@lists.debian.org
Subject: AM report for __

I recommend to accept __ as a Debian Developer.

1. Identification & Account Data
--------------------------------
   First name:      __
   Middle name:     __
   Last name:       __
   Key fingerprint: __
   Account:         __

2. Background
-------------
   [...applicant public short bio goes here...]
